…
CALCULATING ANNUAL LANDINGS

Import data

``` r
landings_data <- read_csv("sample_landings_data_clean.csv")

landings_data
```

    ## # A tibble: 7,208 x 8
    ##     Year Date       Trip_ID Effort_Hours Gear  Species       Length_cm Weight_g
    ##    <dbl> <date>       <dbl>        <dbl> <chr> <chr>             <dbl>    <dbl>
    ##  1  2003 2003-04-30       1           10 trap  Caesio cuning        36    1089.
    ##  2  2003 2003-04-30       1           10 trap  Caesio cuning        29     565.
    ##  3  2003 2003-04-30       1           10 trap  Caesio cuning        34     916.
    ##  4  2003 2003-04-30       1           10 trap  Caesio cuning        36    1089.
    ##  5  2003 2003-04-30       1           10 trap  Caesio cuning        34     916.
    ##  6  2003 2003-04-30       1           10 trap  Caesio cuning        28     508.
    ##  7  2003 2003-04-30       1           10 trap  Caesio cuning        30     627.
    ##  8  2003 2003-04-30       1           10 trap  Caesio cuning        27     455.
    ##  9  2003 2003-04-30       1           10 trap  Caesio cuning        33     837.
    ## 10  2003 2003-04-30       1           10 trap  Caesio cuning        35    1000.
    ## # ... with 7,198 more rows
…
``` r
annual_gear_landings <- landings_data %>% 
  mutate(Weight_kg = Weight_g / 1000) %>%
  group_by(Year, Gear) %>% 
  summarize(Annual_Landings_kg = sum(Weight_kg,na.rm=TRUE))
```

Display a table of the annual landings data by gear type

``` r
annual_gear_landings
```

    ## # A tibble: 39 x 3
    ## # Groups:   Year [9]
    ##     Year Gear     Annual_Landings_kg
    ##    <dbl> <chr>                 <dbl>
    ##  1  2003 gillnet               13.4 
    ##  2  2003 handline               2.87
    ##  3  2003 muroami              248.  
    ##  4  2003 trap                  46.2 
    ##  5  2004 gillnet                4.19
    ##  6  2004 handline              57.7 
    ##  7  2004 muroami              371.  
    ##  8  2004 speargun               9.48
    ##  9  2004 trap                 119.  
    ## 10  2004 trolling               4.39
    ## # ... with 29 more rows
…
