…
Import data

``` r
landings_data <- read_csv("sample_landings_data_raw.csv")

landings_data
```

    ## # A tibble: 7,214 x 8
    ##       yy dat      trip effort gr    sp              l_cm  w_cm
    ##    <dbl> <chr>   <dbl>  <dbl> <chr> <chr>          <dbl> <dbl>
    ##  1  2003 4/30/03     1     10 Trap  Caesoi cunning    36 1089.
    ##  2  2003 4/30/03     1     10 trap  Caesio cuning     29  565.
    ##  3  2003 4/30/03     1     10 Trap  Caesio cuning     34  916.
    ##  4  2003 4/30/03     1     10 Trap  Caesio cuning     36 1089.
    ##  5  2003 4/30/03     1     10 Trap  Caesio cuning     34  916.
    ##  6  2003 4/30/03     1     10 Trap  Caesoi cunning    28  508.
    ##  7  2003 4/30/03     1     10 Trap  Caesio cuning     30  627.
    ##  8  2003 4/30/03     1     10 Trap  Caesio cuning     27  455.
    ##  9  2003 4/30/03     1     10 Trap  Caesio cuning     33  837.
    ## 10  2003 4/30/03     1     10 Trap  Caesio cuning     35 1000.
    ## # ... with 7,204 more rows
…
Print data.

``` r
landings_data
```

    ## # A tibble: 7,214 x 8
    ##     Year Date       Trip_ID Effort_Hours Gear  Species        Length_cm Weight_g
    ##    <dbl> <date>       <dbl>        <dbl> <chr> <chr>              <dbl>    <dbl>
    ##  1  2003 2003-04-30       1           10 Trap  Caesoi cunning        36    1089.
    ##  2  2003 2003-04-30       1           10 trap  Caesio cuning         29     565.
    ##  3  2003 2003-04-30       1           10 Trap  Caesio cuning         34     916.
    ##  4  2003 2003-04-30       1           10 Trap  Caesio cuning         36    1089.
    ##  5  2003 2003-04-30       1           10 Trap  Caesio cuning         34     916.
    ##  6  2003 2003-04-30       1           10 Trap  Caesoi cunning        28     508.
    ##  7  2003 2003-04-30       1           10 Trap  Caesio cuning         30     627.
    ##  8  2003 2003-04-30       1           10 Trap  Caesio cuning         27     455.
    ##  9  2003 2003-04-30       1           10 Trap  Caesio cuning         33     837.
    ## 10  2003 2003-04-30       1           10 Trap  Caesio cuning         35    1000.
    ## # ... with 7,204 more rows
…
Remove rows with missing values

``` r
landings_data <- na.omit(landings_data)
```

Print edited data set

``` r
landings_data
```

    ## # A tibble: 7,211 x 8
    ##     Year Date       Trip_ID Effort_Hours Gear  Species        Length_cm Weight_g
    ##    <dbl> <date>       <dbl>        <dbl> <chr> <chr>              <dbl>    <dbl>
    ##  1  2003 2003-04-30       1           10 Trap  Caesoi cunning        36    1089.
    ##  2  2003 2003-04-30       1           10 trap  Caesio cuning         29     565.
    ##  3  2003 2003-04-30       1           10 Trap  Caesio cuning         34     916.
    ##  4  2003 2003-04-30       1           10 Trap  Caesio cuning         36    1089.
    ##  5  2003 2003-04-30       1           10 Trap  Caesio cuning         34     916.
    ##  6  2003 2003-04-30       1           10 Trap  Caesoi cunning        28     508.
    ##  7  2003 2003-04-30       1           10 Trap  Caesio cuning         30     627.
    ##  8  2003 2003-04-30       1           10 Trap  Caesio cuning         27     455.
    ##  9  2003 2003-04-30       1           10 Trap  Caesio cuning         33     837.
    ## 10  2003 2003-04-30       1           10 Trap  Caesio cuning         35    1000.
    ## # ... with 7,201 more rows
…
Examine data frame again

``` r
landings_data
```

    ## # A tibble: 7,208 x 8
    ##     Year Date       Trip_ID Effort_Hours Gear  Species       Length_cm Weight_g
    ##    <dbl> <date>       <dbl>        <dbl> <chr> <chr>             <dbl>    <dbl>
    ##  1  2003 2003-04-30       1           10 trap  Caesio cuning        36    1089.
    ##  2  2003 2003-04-30       1           10 trap  Caesio cuning        29     565.
    ##  3  2003 2003-04-30       1           10 trap  Caesio cuning        34     916.
    ##  4  2003 2003-04-30       1           10 trap  Caesio cuning        36    1089.
    ##  5  2003 2003-04-30       1           10 trap  Caesio cuning        34     916.
    ##  6  2003 2003-04-30       1           10 trap  Caesio cuning        28     508.
    ##  7  2003 2003-04-30       1           10 trap  Caesio cuning        30     627.
    ##  8  2003 2003-04-30       1           10 trap  Caesio cuning        27     455.
    ##  9  2003 2003-04-30       1           10 trap  Caesio cuning        33     837.
    ## 10  2003 2003-04-30       1           10 trap  Caesio cuning        35    1000.
    ## # ... with 7,198 more rows
…
